test_run_dir/BubbleFifo_should_pass/BubbleFifo.vcd
$date
2022-06-21T08:45+0000
$end
$version
0.2
$end
$comment

$end
$timescale 1ns  $end
$scope module BubbleFifo $end
 $var wire 1 % io_enq_ready $end
 $var wire 1 1 Buffer $end
 $var wire 1 2 clock $end
 $var wire 1 3 Buffer_2 $end
 $var wire 1 4 Buffer_1 $end
 $var wire 1 5 Buffer_3 $end
 $var wire 1 6 reset $end
 $var wire 1 ; io_deq_ready $end
 $var wire 32 B io_deq_bits $end
 $var wire 1 N io_deq_valid $end
 $var wire 32 S io_enq_bits $end
 $var wire 1 T io_enq_valid $end
  $scope module Buffer $end
   $var wire 1 ! io_enq_ready $end
   $var wire 1 ' io_deq_valid $end
   $var wire 1 ( fullReg $end
   $var wire 32 + dataReg $end
   $var wire 1 @ clock $end
   $var wire 32 D io_deq_bits $end
   $var wire 1 H reset $end
   $var wire 1 I io_enq_valid $end
   $var wire 32 L io_enq_bits $end
   $var wire 1 R io_deq_ready $end
  $upscope $end
  $scope module Buffer_2 $end
   $var wire 1 , io_enq_valid $end
   $var wire 32 0 io_enq_bits $end
   $var wire 1 8 io_deq_valid $end
   $var wire 1 : io_enq_ready $end
   $var wire 32 < dataReg $end
   $var wire 1 = reset $end
   $var wire 1 > fullReg $end
   $var wire 1 E io_deq_ready $end
   $var wire 1 F clock $end
   $var wire 32 O io_deq_bits $end
  $upscope $end
  $scope module Buffer_1 $end
   $var wire 1 " io_deq_valid $end
   $var wire 1 $ io_enq_ready $end
   $var wire 1 ) fullReg $end
   $var wire 32 * dataReg $end
   $var wire 32 - io_enq_bits $end
   $var wire 1 / clock $end
   $var wire 1 ? io_enq_valid $end
   $var wire 1 J io_deq_ready $end
   $var wire 1 M reset $end
   $var wire 32 Q io_deq_bits $end
  $upscope $end
  $scope module Buffer_3 $end
   $var wire 1 # io_deq_valid $end
   $var wire 1 & io_enq_ready $end
   $var wire 32 . io_enq_bits $end
   $var wire 1 7 reset $end
   $var wire 1 9 clock $end
   $var wire 1 A io_enq_valid $end
   $var wire 1 C io_deq_ready $end
   $var wire 1 G fullReg $end
   $var wire 32 K dataReg $end
   $var wire 32 P io_deq_bits $end
  $upscope $end
$upscope $end
$enddefinitions $end
$dumpvars
b00000000000000000000000000000000 +
01
b00000000000000000000000000000000 *
02
b00000000000000000000000000000000 -
03
04
05
06
07
08
09
0:
0;
0=
0>
0?
0@
0A
0C
b00000000000000000000000000000000 <
0E
0F
0G
0H
0I
0J
0M
b00000000000000000000000000000000 .
0N
b00000000000000000000000000000000 0
0R
0T
b00000000000000000000000000000000 K
b00000000000000000000000000000000 L
b00000000000000000000000000000000 B
b00000000000000000000000000000000 D
0!
0"
0#
0$
0%
0&
0'
0(
b00000000000000000000000000000000 S
0)
0,
b00000000000000000000000000000000 O
b00000000000000000000000000000000 Q
0/
b00000000000000000000000000000000 P
$end
#0
1!
1$
1%
1E
1&
1H
1J
1M
1R
16
17
1:
1=
#1
1@
12
1F
19
1/
#6
0@
0F
0H
b00000000000000000000000010101011 L
0M
0/
02
b00000000000000000000000010101011 S
06
07
09
0=
#11
1@
12
1F
19
1/
#16
0@
02
b00000000000000000000000100100011 S
1T
0F
09
1I
b00000000000000000000000100100011 L
0/
#21
1@
0!
b00000000000000000000000100100011 D
0%
1F
1'
1(
b00000000000000000000000100100011 +
b00000000000000000000000100100011 -
1/
12
19
1?
#26
0@
02
b00000000000000000000000010101011 S
0T
0F
09
0I
b00000000000000000000000010101011 L
0/
#31
1@
1!
1"
0$
1%
1F
0'
0(
1)
b00000000000000000000000100100011 *
1,
1/
b00000000000000000000000100100011 0
b00000000000000000000000100100011 Q
12
0R
19
0?
#36
0@
02
0F
09
0/
#41
1@
1A
0"
1$
1F
0)
0J
0,
b00000000000000000000000100100011 .
1/
b00000000000000000000000100100011 O
12
1R
18
19
0:
b00000000000000000000000100100011 <
1>
#46
0@
02
0F
09
0/
#51
1@
0A
b00000000000000000000000100100011 B
1#
0E
0&
1F
1G
1J
b00000000000000000000000100100011 K
1N
1/
b00000000000000000000000100100011 P
12
08
19
1:
0>
#56
0@
02
0F
09
0/
#61
1@
12
1F
19
1/
#66
0@
02
0F
09
0/
#71
1@
12
1F
19
1/
#76
0@
02
0F
09
0/
#81
1@
12
1F
19
1/
#86
0@
02
0F
09
0/
#91
1@
12
1F
19
1/
#96
0@
02
0F
09
0/
#101
1@
12
1F
19
1/
#106
0@
02
0F
09
0/
#111
1@
12
1F
19
1/
#116
0@
02
0F
09
0/
#121
1@
12
1F
19
1/
#126
0@
02
0F
09
0/
#131
1@
12
1F
19
1/
#136
0@
02
0F
09
0/
#141
1@
12
1F
19
1/
#146
0@
02
1C
0F
09
1;
0/
#151
1@
12
0#
1E
1&
1F
0G
19
0N
1/
#156
0@
02
0C
0F
09
0;
0/
#161
1@
12
1F
19
1/
#166
0@
02
b00000000000000000000000000000001 S
1T
0F
09
1I
b00000000000000000000000000000001 L
0/
#171
1@
0!
b00000000000000000000000000000001 D
0%
1F
1'
1(
b00000000000000000000000000000001 +
b00000000000000000000000000000001 -
1/
12
19
1?
#176
0@
02
b00000000000000000000000000000010 S
0F
09
b00000000000000000000000000000010 L
0/
#181
1@
1!
1"
0$
1%
1F
0'
0(
1)
b00000000000000000000000000000001 *
1,
1/
b00000000000000000000000000000001 0
b00000000000000000000000000000001 Q
12
0R
19
0?
#186
0@
02
0F
09
0/
#191
1@
1A
b00000000000000000000000000000010 D
1F
0J
b00000000000000000000000000000001 O
1R
0!
0"
1$
0%
1'
1(
0)
b00000000000000000000000000000010 +
0,
b00000000000000000000000000000010 -
b00000000000000000000000000000001 .
1/
12
18
19
0:
b00000000000000000000000000000001 <
1>
1?
#196
0@
02
b00000000000000000000000000000011 S
0F
09
b00000000000000000000000000000011 L
0/
#201
1@
0A
b00000000000000000000000000000001 B
0E
1F
1G
1J
b00000000000000000000000000000001 K
1N
b00000000000000000000000000000001 P
b00000000000000000000000000000010 Q
0R
1!
1"
1#
0$
1%
0&
0'
0(
1)
b00000000000000000000000000000010 *
1,
1/
b00000000000000000000000000000010 0
12
08
19
1:
0>
0?
#206
0@
02
0F
09
0/
#211
1@
1A
b00000000000000000000000000000011 D
1F
0J
b00000000000000000000000000000010 O
1R
0!
0"
1$
0%
1'
1(
0)
b00000000000000000000000000000011 +
0,
b00000000000000000000000000000011 -
b00000000000000000000000000000010 .
1/
12
18
19
0:
b00000000000000000000000000000010 <
1>
1?
#216
0@
02
b00000000000000000000000000000100 S
0F
09
b00000000000000000000000000000100 L
0/
#221
1@
1!
1"
0$
1%
1F
0'
0(
1)
b00000000000000000000000000000011 *
1,
1/
b00000000000000000000000000000011 0
b00000000000000000000000000000011 Q
12
0R
19
0?
#226
0@
02
0F
09
0/
#231
1@
0!
b00000000000000000000000000000100 D
0%
1F
1'
1(
b00000000000000000000000000000100 +
b00000000000000000000000000000100 -
1/
12
19
1?
#236
0@
02
b00000000000000000000000000000101 S
0F
09
b00000000000000000000000000000101 L
0/
#241
1@
12
1F
19
1/
#246
0@
02
0F
09
0/
#251
1@
12
1F
19
1/
#256
0@
02
0F
09
0/
#261
1@
12
1F
19
1/
#266
0@
02
0F
09
0/
#271
1@
12
1F
19
1/
#276
0@
02
0F
09
0/
#281
1@
12
1F
19
1/
#286
0@
02
1C
0T
0F
09
0I
1;
0/
#291
1@
12
0#
1E
1&
1F
0G
19
0N
1/
#296
0@
02
0F
09
0/
#301
1@
0A
b00000000000000000000000000000010 B
1#
0E
0&
1F
1G
1J
b00000000000000000000000000000010 K
1N
1/
b00000000000000000000000000000010 P
12
08
19
1:
0>
#306
0@
02
0F
09
0/
#311
1@
1A
0"
0#
1$
1E
1&
1F
0G
0)
0J
0,
b00000000000000000000000000000011 .
0N
1/
b00000000000000000000000000000011 O
12
1R
18
19
0:
b00000000000000000000000000000011 <
1>
#316
0@
02
0F
09
0/
#321
1@
0A
b00000000000000000000000000000011 B
0E
1F
1G
1J
b00000000000000000000000000000011 K
1N
b00000000000000000000000000000011 P
b00000000000000000000000000000100 Q
0R
1!
1"
1#
0$
1%
0&
0'
0(
1)
b00000000000000000000000000000100 *
1,
1/
b00000000000000000000000000000100 0
12
08
19
1:
0>
0?
#326
0@
02
0F
09
0/
#331
1@
1A
0"
0#
1$
1E
1&
1F
0G
0)
0J
0,
b00000000000000000000000000000100 .
0N
1/
b00000000000000000000000000000100 O
12
1R
18
19
0:
b00000000000000000000000000000100 <
1>
#336
0@
02
0F
09
0/
#341
1@
0A
b00000000000000000000000000000100 B
1#
0E
0&
1F
1G
1J
b00000000000000000000000000000100 K
1N
1/
b00000000000000000000000000000100 P
12
08
19
1:
0>
#346
0@
02
0F
09
0/
#351
1@
12
0#
1E
1&
1F
0G
19
0N
1/
#356
0@
02
0F
09
0/
#361
1@
12
1F
19
1/
#366
0@
02
0F
09
0/
#371
1@
12
1F
19
1/
#376
0@
02
0F
09
0/
#381
1@
12
1F
19
1/
#386
0@
02
0F
09
0/
#391
1@
12
1F
19
1/
#396
0@
02
0F
09
0/
#401
1@
12
1F
19
1/
#406
0@
02
b00000000000000000000000000000000 S
1T
0F
09
1I
b00000000000000000000000000000000 L
0/
#411
1@
0!
b00000000000000000000000000000000 D
0%
1F
1'
1(
b00000000000000000000000000000000 +
b00000000000000000000000000000000 -
1/
12
19
1?
#416
0@
02
b00000000000000000000000000000001 S
0F
09
b00000000000000000000000000000001 L
0/
#421
1@
1!
1"
0$
1%
1F
0'
0(
1)
b00000000000000000000000000000000 *
1,
1/
b00000000000000000000000000000000 0
b00000000000000000000000000000000 Q
12
0R
19
0?
#426
0@
02
b00000000000000000000000000000010 S
0F
09
b00000000000000000000000000000010 L
0/
#431
1@
1A
b00000000000000000000000000000010 D
1F
0J
b00000000000000000000000000000000 O
1R
0!
0"
1$
0%
1'
1(
0)
b00000000000000000000000000000010 +
0,
b00000000000000000000000000000010 -
b00000000000000000000000000000000 .
1/
12
18
19
0:
b00000000000000000000000000000000 <
1>
1?
#436
0@
02
b00000000000000000000000000000011 S
0F
09
b00000000000000000000000000000011 L
0/
#441
1@
0A
b00000000000000000000000000000000 B
0E
1F
1G
1J
b00000000000000000000000000000000 K
1N
b00000000000000000000000000000000 P
b00000000000000000000000000000010 Q
0R
1!
1"
1#
0$
1%
0&
0'
0(
1)
b00000000000000000000000000000010 *
1,
1/
b00000000000000000000000000000010 0
12
08
19
1:
0>
0?
#446
0@
02
b00000000000000000000000000000100 S
0F
09
b00000000000000000000000000000100 L
0/
#451
1@
1A
b00000000000000000000000000000100 D
1E
1F
0G
0J
0N
b00000000000000000000000000000010 O
1R
0!
0"
0#
1$
0%
1&
1'
1(
0)
b00000000000000000000000000000100 +
0,
b00000000000000000000000000000100 -
b00000000000000000000000000000010 .
1/
12
18
19
0:
b00000000000000000000000000000010 <
1>
1?
#456
0@
02
b00000000000000000000000000000101 S
0F
09
b00000000000000000000000000000101 L
0/
#461
1@
0A
b00000000000000000000000000000010 B
0E
1F
1G
1J
b00000000000000000000000000000010 K
1N
b00000000000000000000000000000010 P
b00000000000000000000000000000100 Q
0R
1!
1"
1#
0$
1%
0&
0'
0(
1)
b00000000000000000000000000000100 *
1,
1/
b00000000000000000000000000000100 0
12
08
19
1:
0>
0?
#466
0@
02
b00000000000000000000000000000110 S
0F
09
b00000000000000000000000000000110 L
0/
#471
1@
1A
b00000000000000000000000000000110 D
1E
1F
0G
0J
0N
b00000000000000000000000000000100 O
1R
0!
0"
0#
1$
0%
1&
1'
1(
0)
b00000000000000000000000000000110 +
0,
b00000000000000000000000000000110 -
b00000000000000000000000000000100 .
1/
12
18
19
0:
b00000000000000000000000000000100 <
1>
1?
#476
0@
02
b00000000000000000000000000000111 S
0F
09
b00000000000000000000000000000111 L
0/
#481
1@
0A
b00000000000000000000000000000100 B
0E
1F
1G
1J
b00000000000000000000000000000100 K
1N
b00000000000000000000000000000100 P
b00000000000000000000000000000110 Q
0R
1!
1"
1#
0$
1%
0&
0'
0(
1)
b00000000000000000000000000000110 *
1,
1/
b00000000000000000000000000000110 0
12
08
19
1:
0>
0?
#486
0@
02
b00000000000000000000000000001000 S
0F
09
b00000000000000000000000000001000 L
0/
#491
1@
1A
b00000000000000000000000000001000 D
1E
1F
0G
0J
0N
b00000000000000000000000000000110 O
1R
0!
0"
0#
1$
0%
1&
1'
1(
0)
b00000000000000000000000000001000 +
0,
b00000000000000000000000000001000 -
b00000000000000000000000000000110 .
1/
12
18
19
0:
b00000000000000000000000000000110 <
1>
1?
#496
0@
02
b00000000000000000000000000001001 S
0F
09
b00000000000000000000000000001001 L
0/
#501
1@
0A
b00000000000000000000000000000110 B
0E
1F
1G
1J
b00000000000000000000000000000110 K
1N
b00000000000000000000000000000110 P
b00000000000000000000000000001000 Q
0R
1!
1"
1#
0$
1%
0&
0'
0(
1)
b00000000000000000000000000001000 *
1,
1/
b00000000000000000000000000001000 0
12
08
19
1:
0>
0?
#506
0@
02
b00000000000000000000000000001010 S
0F
09
b00000000000000000000000000001010 L
0/
#511
1@
1A
b00000000000000000000000000001010 D
1E
1F
0G
0J
0N
b00000000000000000000000000001000 O
1R
0!
0"
0#
1$
0%
1&
1'
1(
0)
b00000000000000000000000000001010 +
0,
b00000000000000000000000000001010 -
b00000000000000000000000000001000 .
1/
12
18
19
0:
b00000000000000000000000000001000 <
1>
1?
#516
0@
02
b00000000000000000000000000001011 S
0F
09
b00000000000000000000000000001011 L
0/
#521
1@
0A
b00000000000000000000000000001000 B
0E
1F
1G
1J
b00000000000000000000000000001000 K
1N
b00000000000000000000000000001000 P
b00000000000000000000000000001010 Q
0R
1!
1"
1#
0$
1%
0&
0'
0(
1)
b00000000000000000000000000001010 *
1,
1/
b00000000000000000000000000001010 0
12
08
19
1:
0>
0?
#526
0@
02
b00000000000000000000000000001100 S
0F
09
b00000000000000000000000000001100 L
0/
#531
1@
1A
b00000000000000000000000000001100 D
1E
1F
0G
0J
0N
b00000000000000000000000000001010 O
1R
0!
0"
0#
1$
0%
1&
1'
1(
0)
b00000000000000000000000000001100 +
0,
b00000000000000000000000000001100 -
b00000000000000000000000000001010 .
1/
12
18
19
0:
b00000000000000000000000000001010 <
1>
1?
#536
0@
02
b00000000000000000000000000001101 S
0F
09
b00000000000000000000000000001101 L
0/
#541
1@
0A
b00000000000000000000000000001010 B
0E
1F
1G
1J
b00000000000000000000000000001010 K
1N
b00000000000000000000000000001010 P
b00000000000000000000000000001100 Q
0R
1!
1"
1#
0$
1%
0&
0'
0(
1)
b00000000000000000000000000001100 *
1,
1/
b00000000000000000000000000001100 0
12
08
19
1:
0>
0?
#546
0@
02
b00000000000000000000000000001110 S
0F
09
b00000000000000000000000000001110 L
0/
#551
1@
1A
b00000000000000000000000000001110 D
1E
1F
0G
0J
0N
b00000000000000000000000000001100 O
1R
0!
0"
0#
1$
0%
1&
1'
1(
0)
b00000000000000000000000000001110 +
0,
b00000000000000000000000000001110 -
b00000000000000000000000000001100 .
1/
12
18
19
0:
b00000000000000000000000000001100 <
1>
1?
#556
0@
02
b00000000000000000000000000001111 S
0F
09
b00000000000000000000000000001111 L
0/
#561
1@
0A
b00000000000000000000000000001100 B
0E
1F
1G
1J
b00000000000000000000000000001100 K
1N
b00000000000000000000000000001100 P
b00000000000000000000000000001110 Q
0R
1!
1"
1#
0$
1%
0&
0'
0(
1)
b00000000000000000000000000001110 *
1,
1/
b00000000000000000000000000001110 0
12
08
19
1:
0>
0?
#566
0@
02
b00000000000000000000000000010000 S
0F
09
b00000000000000000000000000010000 L
0/
#571
1@
1A
b00000000000000000000000000010000 D
1E
1F
0G
0J
0N
b00000000000000000000000000001110 O
1R
0!
0"
0#
1$
0%
1&
1'
1(
0)
b00000000000000000000000000010000 +
0,
b00000000000000000000000000010000 -
b00000000000000000000000000001110 .
1/
12
18
19
0:
b00000000000000000000000000001110 <
1>
1?
#576
0@
02
b00000000000000000000000000010001 S
0F
09
b00000000000000000000000000010001 L
0/
#581
1@
0A
b00000000000000000000000000001110 B
0E
1F
1G
1J
b00000000000000000000000000001110 K
1N
b00000000000000000000000000001110 P
b00000000000000000000000000010000 Q
0R
1!
1"
1#
0$
1%
0&
0'
0(
1)
b00000000000000000000000000010000 *
1,
1/
b00000000000000000000000000010000 0
12
08
19
1:
0>
0?
#586
0@
02
b00000000000000000000000000010010 S
0F
09
b00000000000000000000000000010010 L
0/
#591
1@
1A
b00000000000000000000000000010010 D
1E
1F
0G
0J
0N
b00000000000000000000000000010000 O
1R
0!
0"
0#
1$
0%
1&
1'
1(
0)
b00000000000000000000000000010010 +
0,
b00000000000000000000000000010010 -
b00000000000000000000000000010000 .
1/
12
18
19
0:
b00000000000000000000000000010000 <
1>
1?
#596
0@
02
b00000000000000000000000000010011 S
0F
09
b00000000000000000000000000010011 L
0/
#601
1@
0A
b00000000000000000000000000010000 B
0E
1F
1G
1J
b00000000000000000000000000010000 K
1N
b00000000000000000000000000010000 P
b00000000000000000000000000010010 Q
0R
1!
1"
1#
0$
1%
0&
0'
0(
1)
b00000000000000000000000000010010 *
1,
1/
b00000000000000000000000000010010 0
12
08
19
1:
0>
0?
#606
0@
02
b00000000000000000000000000010100 S
0F
09
b00000000000000000000000000010100 L
0/
#611
1@
1A
b00000000000000000000000000010100 D
1E
1F
0G
0J
0N
b00000000000000000000000000010010 O
1R
0!
0"
0#
1$
0%
1&
1'
1(
0)
b00000000000000000000000000010100 +
0,
b00000000000000000000000000010100 -
b00000000000000000000000000010010 .
1/
12
18
19
0:
b00000000000000000000000000010010 <
1>
1?
#616
0@
02
b00000000000000000000000000010101 S
0F
09
b00000000000000000000000000010101 L
0/
#621
1@
0A
b00000000000000000000000000010010 B
0E
1F
1G
1J
b00000000000000000000000000010010 K
1N
b00000000000000000000000000010010 P
b00000000000000000000000000010100 Q
0R
1!
1"
1#
0$
1%
0&
0'
0(
1)
b00000000000000000000000000010100 *
1,
1/
b00000000000000000000000000010100 0
12
08
19
1:
0>
0?
#626
0@
02
b00000000000000000000000000010110 S
0F
09
b00000000000000000000000000010110 L
0/
#631
1@
1A
b00000000000000000000000000010110 D
1E
1F
0G
0J
0N
b00000000000000000000000000010100 O
1R
0!
0"
0#
1$
0%
1&
1'
1(
0)
b00000000000000000000000000010110 +
0,
b00000000000000000000000000010110 -
b00000000000000000000000000010100 .
1/
12
18
19
0:
b00000000000000000000000000010100 <
1>
1?
#636
0@
02
b00000000000000000000000000010111 S
0F
09
b00000000000000000000000000010111 L
0/
#641
1@
0A
b00000000000000000000000000010100 B
0E
1F
1G
1J
b00000000000000000000000000010100 K
1N
b00000000000000000000000000010100 P
b00000000000000000000000000010110 Q
0R
1!
1"
1#
0$
1%
0&
0'
0(
1)
b00000000000000000000000000010110 *
1,
1/
b00000000000000000000000000010110 0
12
08
19
1:
0>
0?
#646
0@
02
b00000000000000000000000000011000 S
0F
09
b00000000000000000000000000011000 L
0/
#651
1@
1A
b00000000000000000000000000011000 D
1E
1F
0G
0J
0N
b00000000000000000000000000010110 O
1R
0!
0"
0#
1$
0%
1&
1'
1(
0)
b00000000000000000000000000011000 +
0,
b00000000000000000000000000011000 -
b00000000000000000000000000010110 .
1/
12
18
19
0:
b00000000000000000000000000010110 <
1>
1?
#656
0@
02
b00000000000000000000000000011001 S
0F
09
b00000000000000000000000000011001 L
0/
#661
1@
0A
b00000000000000000000000000010110 B
0E
1F
1G
1J
b00000000000000000000000000010110 K
1N
b00000000000000000000000000010110 P
b00000000000000000000000000011000 Q
0R
1!
1"
1#
0$
1%
0&
0'
0(
1)
b00000000000000000000000000011000 *
1,
1/
b00000000000000000000000000011000 0
12
08
19
1:
0>
0?
#666
0@
02
b00000000000000000000000000011010 S
0F
09
b00000000000000000000000000011010 L
0/
#671
1@
1A
b00000000000000000000000000011010 D
1E
1F
0G
0J
0N
b00000000000000000000000000011000 O
1R
0!
0"
0#
1$
0%
1&
1'
1(
0)
b00000000000000000000000000011010 +
0,
b00000000000000000000000000011010 -
b00000000000000000000000000011000 .
1/
12
18
19
0:
b00000000000000000000000000011000 <
1>
1?
#676
0@
02
b00000000000000000000000000011011 S
0F
09
b00000000000000000000000000011011 L
0/
#681
1@
0A
b00000000000000000000000000011000 B
0E
1F
1G
1J
b00000000000000000000000000011000 K
1N
b00000000000000000000000000011000 P
b00000000000000000000000000011010 Q
0R
1!
1"
1#
0$
1%
0&
0'
0(
1)
b00000000000000000000000000011010 *
1,
1/
b00000000000000000000000000011010 0
12
08
19
1:
0>
0?
#686
0@
02
b00000000000000000000000000011100 S
0F
09
b00000000000000000000000000011100 L
0/
#691
1@
1A
b00000000000000000000000000011100 D
1E
1F
0G
0J
0N
b00000000000000000000000000011010 O
1R
0!
0"
0#
1$
0%
1&
1'
1(
0)
b00000000000000000000000000011100 +
0,
b00000000000000000000000000011100 -
b00000000000000000000000000011010 .
1/
12
18
19
0:
b00000000000000000000000000011010 <
1>
1?
#696
0@
02
b00000000000000000000000000011101 S
0F
09
b00000000000000000000000000011101 L
0/
#701
1@
0A
b00000000000000000000000000011010 B
0E
1F
1G
1J
b00000000000000000000000000011010 K
1N
b00000000000000000000000000011010 P
b00000000000000000000000000011100 Q
0R
1!
1"
1#
0$
1%
0&
0'
0(
1)
b00000000000000000000000000011100 *
1,
1/
b00000000000000000000000000011100 0
12
08
19
1:
0>
0?
#706
0@
02
b00000000000000000000000000011110 S
0F
09
b00000000000000000000000000011110 L
0/
#711
1@
1A
b00000000000000000000000000011110 D
1E
1F
0G
0J
0N
b00000000000000000000000000011100 O
1R
0!
0"
0#
1$
0%
1&
1'
1(
0)
b00000000000000000000000000011110 +
0,
b00000000000000000000000000011110 -
b00000000000000000000000000011100 .
1/
12
18
19
0:
b00000000000000000000000000011100 <
1>
1?
#716
0@
02
b00000000000000000000000000011111 S
0F
09
b00000000000000000000000000011111 L
0/
#721
1@
0A
b00000000000000000000000000011100 B
0E
1F
1G
1J
b00000000000000000000000000011100 K
1N
b00000000000000000000000000011100 P
b00000000000000000000000000011110 Q
0R
1!
1"
1#
0$
1%
0&
0'
0(
1)
b00000000000000000000000000011110 *
1,
1/
b00000000000000000000000000011110 0
12
08
19
1:
0>
0?
#726
0@
02
b00000000000000000000000000100000 S
0F
09
b00000000000000000000000000100000 L
0/
#731
1@
1A
b00000000000000000000000000100000 D
1E
1F
0G
0J
0N
b00000000000000000000000000011110 O
1R
0!
0"
0#
1$
0%
1&
1'
1(
0)
b00000000000000000000000000100000 +
0,
b00000000000000000000000000100000 -
b00000000000000000000000000011110 .
1/
12
18
19
0:
b00000000000000000000000000011110 <
1>
1?
#736
0@
02
b00000000000000000000000000100001 S
0F
09
b00000000000000000000000000100001 L
0/
#741
1@
0A
b00000000000000000000000000011110 B
0E
1F
1G
1J
b00000000000000000000000000011110 K
1N
b00000000000000000000000000011110 P
b00000000000000000000000000100000 Q
0R
1!
1"
1#
0$
1%
0&
0'
0(
1)
b00000000000000000000000000100000 *
1,
1/
b00000000000000000000000000100000 0
12
08
19
1:
0>
0?
#746
0@
02
b00000000000000000000000000100010 S
0F
09
b00000000000000000000000000100010 L
0/
#751
1@
1A
b00000000000000000000000000100010 D
1E
1F
0G
0J
0N
b00000000000000000000000000100000 O
1R
0!
0"
0#
1$
0%
1&
1'
1(
0)
b00000000000000000000000000100010 +
0,
b00000000000000000000000000100010 -
b00000000000000000000000000100000 .
1/
12
18
19
0:
b00000000000000000000000000100000 <
1>
1?
#756
0@
02
b00000000000000000000000000100011 S
0F
09
b00000000000000000000000000100011 L
0/
#761
1@
0A
b00000000000000000000000000100000 B
0E
1F
1G
1J
b00000000000000000000000000100000 K
1N
b00000000000000000000000000100000 P
b00000000000000000000000000100010 Q
0R
1!
1"
1#
0$
1%
0&
0'
0(
1)
b00000000000000000000000000100010 *
1,
1/
b00000000000000000000000000100010 0
12
08
19
1:
0>
0?
#766
0@
02
b00000000000000000000000000100100 S
0F
09
b00000000000000000000000000100100 L
0/
#771
1@
1A
b00000000000000000000000000100100 D
1E
1F
0G
0J
0N
b00000000000000000000000000100010 O
1R
0!
0"
0#
1$
0%
1&
1'
1(
0)
b00000000000000000000000000100100 +
0,
b00000000000000000000000000100100 -
b00000000000000000000000000100010 .
1/
12
18
19
0:
b00000000000000000000000000100010 <
1>
1?
#776
0@
02
b00000000000000000000000000100101 S
0F
09
b00000000000000000000000000100101 L
0/
#781
1@
0A
b00000000000000000000000000100010 B
0E
1F
1G
1J
b00000000000000000000000000100010 K
1N
b00000000000000000000000000100010 P
b00000000000000000000000000100100 Q
0R
1!
1"
1#
0$
1%
0&
0'
0(
1)
b00000000000000000000000000100100 *
1,
1/
b00000000000000000000000000100100 0
12
08
19
1:
0>
0?
#786
0@
02
b00000000000000000000000000100110 S
0F
09
b00000000000000000000000000100110 L
0/
#791
1@
1A
b00000000000000000000000000100110 D
1E
1F
0G
0J
0N
b00000000000000000000000000100100 O
1R
0!
0"
0#
1$
0%
1&
1'
1(
0)
b00000000000000000000000000100110 +
0,
b00000000000000000000000000100110 -
b00000000000000000000000000100100 .
1/
12
18
19
0:
b00000000000000000000000000100100 <
1>
1?
#796
0@
02
b00000000000000000000000000100111 S
0F
09
b00000000000000000000000000100111 L
0/
#801
1@
0A
b00000000000000000000000000100100 B
0E
1F
1G
1J
b00000000000000000000000000100100 K
1N
b00000000000000000000000000100100 P
b00000000000000000000000000100110 Q
0R
1!
1"
1#
0$
1%
0&
0'
0(
1)
b00000000000000000000000000100110 *
1,
1/
b00000000000000000000000000100110 0
12
08
19
1:
0>
0?
#806
0@
02
b00000000000000000000000000101000 S
0F
09
b00000000000000000000000000101000 L
0/
#811
1@
1A
b00000000000000000000000000101000 D
1E
1F
0G
0J
0N
b00000000000000000000000000100110 O
1R
0!
0"
0#
1$
0%
1&
1'
1(
0)
b00000000000000000000000000101000 +
0,
b00000000000000000000000000101000 -
b00000000000000000000000000100110 .
1/
12
18
19
0:
b00000000000000000000000000100110 <
1>
1?
#816
0@
02
b00000000000000000000000000101001 S
0F
09
b00000000000000000000000000101001 L
0/
#821
1@
0A
b00000000000000000000000000100110 B
0E
1F
1G
1J
b00000000000000000000000000100110 K
1N
b00000000000000000000000000100110 P
b00000000000000000000000000101000 Q
0R
1!
1"
1#
0$
1%
0&
0'
0(
1)
b00000000000000000000000000101000 *
1,
1/
b00000000000000000000000000101000 0
12
08
19
1:
0>
0?
#826
0@
02
b00000000000000000000000000101010 S
0F
09
b00000000000000000000000000101010 L
0/
#831
1@
1A
b00000000000000000000000000101010 D
1E
1F
0G
0J
0N
b00000000000000000000000000101000 O
1R
0!
0"
0#
1$
0%
1&
1'
1(
0)
b00000000000000000000000000101010 +
0,
b00000000000000000000000000101010 -
b00000000000000000000000000101000 .
1/
12
18
19
0:
b00000000000000000000000000101000 <
1>
1?
#836
0@
02
b00000000000000000000000000101011 S
0F
09
b00000000000000000000000000101011 L
0/
#841
1@
0A
b00000000000000000000000000101000 B
0E
1F
1G
1J
b00000000000000000000000000101000 K
1N
b00000000000000000000000000101000 P
b00000000000000000000000000101010 Q
0R
1!
1"
1#
0$
1%
0&
0'
0(
1)
b00000000000000000000000000101010 *
1,
1/
b00000000000000000000000000101010 0
12
08
19
1:
0>
0?
#846
0@
02
b00000000000000000000000000101100 S
0F
09
b00000000000000000000000000101100 L
0/
#851
1@
1A
b00000000000000000000000000101100 D
1E
1F
0G
0J
0N
b00000000000000000000000000101010 O
1R
0!
0"
0#
1$
0%
1&
1'
1(
0)
b00000000000000000000000000101100 +
0,
b00000000000000000000000000101100 -
b00000000000000000000000000101010 .
1/
12
18
19
0:
b00000000000000000000000000101010 <
1>
1?
#856
0@
02
b00000000000000000000000000101101 S
0F
09
b00000000000000000000000000101101 L
0/
#861
1@
0A
b00000000000000000000000000101010 B
0E
1F
1G
1J
b00000000000000000000000000101010 K
1N
b00000000000000000000000000101010 P
b00000000000000000000000000101100 Q
0R
1!
1"
1#
0$
1%
0&
0'
0(
1)
b00000000000000000000000000101100 *
1,
1/
b00000000000000000000000000101100 0
12
08
19
1:
0>
0?
#866
0@
02
b00000000000000000000000000101110 S
0F
09
b00000000000000000000000000101110 L
0/
#871
1@
1A
b00000000000000000000000000101110 D
1E
1F
0G
0J
0N
b00000000000000000000000000101100 O
1R
0!
0"
0#
1$
0%
1&
1'
1(
0)
b00000000000000000000000000101110 +
0,
b00000000000000000000000000101110 -
b00000000000000000000000000101100 .
1/
12
18
19
0:
b00000000000000000000000000101100 <
1>
1?
#876
0@
02
b00000000000000000000000000101111 S
0F
09
b00000000000000000000000000101111 L
0/
#881
1@
0A
b00000000000000000000000000101100 B
0E
1F
1G
1J
b00000000000000000000000000101100 K
1N
b00000000000000000000000000101100 P
b00000000000000000000000000101110 Q
0R
1!
1"
1#
0$
1%
0&
0'
0(
1)
b00000000000000000000000000101110 *
1,
1/
b00000000000000000000000000101110 0
12
08
19
1:
0>
0?
#886
0@
02
b00000000000000000000000000110000 S
0F
09
b00000000000000000000000000110000 L
0/
#891
1@
1A
b00000000000000000000000000110000 D
1E
1F
0G
0J
0N
b00000000000000000000000000101110 O
1R
0!
0"
0#
1$
0%
1&
1'
1(
0)
b00000000000000000000000000110000 +
0,
b00000000000000000000000000110000 -
b00000000000000000000000000101110 .
1/
12
18
19
0:
b00000000000000000000000000101110 <
1>
1?
#896
0@
02
b00000000000000000000000000110001 S
0F
09
b00000000000000000000000000110001 L
0/
#901
1@
0A
b00000000000000000000000000101110 B
0E
1F
1G
1J
b00000000000000000000000000101110 K
1N
b00000000000000000000000000101110 P
b00000000000000000000000000110000 Q
0R
1!
1"
1#
0$
1%
0&
0'
0(
1)
b00000000000000000000000000110000 *
1,
1/
b00000000000000000000000000110000 0
12
08
19
1:
0>
0?
