test_run_dir/Just_simulate_/Count10.vcd
$date
2022-06-21T05:32+0000
$end
$version
0.2
$end
$comment

$end
$timescale 1ns  $end
$scope module Count10 $end
 $var wire 1 ! add $end
 $var wire 8 " next $end
 $var wire 8 # io_dout $end
 $var wire 1 ( clock $end
 $var wire 1 + reg $end
 $var wire 1 , reset $end
  $scope module add $end
   $var wire 8 % io_b $end
   $var wire 8 & io_a $end
   $var wire 8 * io_y $end
  $upscope $end
  $scope module reg $end
   $var wire 1 $ clock $end
   $var wire 8 ' io_q $end
   $var wire 1 ) reset $end
   $var wire 8 - reg $end
   $var wire 8 . io_d $end
  $upscope $end
$upscope $end
$enddefinitions $end
$dumpvars
b00000000 *
b00000000 -
b00000000 '
b00000000 &
b00000000 #
b00000000 "
b00000000 %
0!
0$
0(
0)
0+
0,
b00000000 .
$end
#0
b00000001 "
b00000001 &
1)
b00000001 *
1,
b00000001 .
#1
1$
1(
#6
0$
0(
0)
0,
#11
b00000010 "
b00000001 #
1$
b00000001 %
b00000001 '
1(
b00000010 *
b00000001 -
b00000010 .
#16
0$
0(
#21
b00000011 "
b00000010 #
1$
b00000010 %
b00000010 '
1(
b00000011 *
b00000010 -
b00000011 .
#26
0$
0(
#31
b00000100 "
b00000011 #
1$
b00000011 %
b00000011 '
1(
b00000100 *
b00000011 -
b00000100 .
#36
0$
0(
#41
b00000101 "
b00000100 #
1$
b00000100 %
b00000100 '
1(
b00000101 *
b00000100 -
b00000101 .
#46
0$
0(
#51
b00000110 "
b00000101 #
1$
b00000101 %
b00000101 '
1(
b00000110 *
b00000101 -
b00000110 .
#56
0$
0(
#61
b00000111 "
b00000110 #
1$
b00000110 %
b00000110 '
1(
b00000111 *
b00000110 -
b00000111 .
#66
0$
0(
#71
b00001000 "
b00000111 #
1$
b00000111 %
b00000111 '
1(
b00001000 *
b00000111 -
b00001000 .
#76
0$
0(
#81
b00001001 "
b00001000 #
1$
b00001000 %
b00001000 '
1(
b00001001 *
b00001000 -
b00001001 .
#86
0$
0(
#91
b00000000 "
b00001001 #
1$
b00001001 %
b00001001 '
1(
b00001010 *
b00001001 -
b00000000 .
#96
0$
0(
#101
b00000001 "
b00000000 #
1$
b00000000 %
b00000000 '
1(
b00000001 *
b00000000 -
b00000001 .
#106
0$
0(
#111
b00000010 "
b00000001 #
1$
b00000001 %
b00000001 '
1(
b00000010 *
b00000001 -
b00000010 .
#116
0$
0(
#121
b00000011 "
b00000010 #
1$
b00000010 %
b00000010 '
1(
b00000011 *
b00000010 -
b00000011 .
#126
0$
0(
#131
b00000100 "
b00000011 #
1$
b00000011 %
b00000011 '
1(
b00000100 *
b00000011 -
b00000100 .
#136
0$
0(
#141
b00000101 "
b00000100 #
1$
b00000100 %
b00000100 '
1(
b00000101 *
b00000100 -
b00000101 .
#146
0$
0(
#151
b00000110 "
b00000101 #
1$
b00000101 %
b00000101 '
1(
b00000110 *
b00000101 -
b00000110 .
#156
0$
0(
#161
b00000111 "
b00000110 #
1$
b00000110 %
b00000110 '
1(
b00000111 *
b00000110 -
b00000111 .
#166
0$
0(
#171
b00001000 "
b00000111 #
1$
b00000111 %
b00000111 '
1(
b00001000 *
b00000111 -
b00001000 .
#176
0$
0(
#181
b00001001 "
b00001000 #
1$
b00001000 %
b00001000 '
1(
b00001001 *
b00001000 -
b00001001 .
#186
0$
0(
#191
b00000000 "
b00001001 #
1$
b00001001 %
b00001001 '
1(
b00001010 *
b00001001 -
b00000000 .
#196
0$
0(
#201
b00000001 "
b00000000 #
1$
b00000000 %
b00000000 '
1(
b00000001 *
b00000000 -
b00000001 .
#206
0$
0(
#211
b00000010 "
b00000001 #
1$
b00000001 %
b00000001 '
1(
b00000010 *
b00000001 -
b00000010 .
#216
0$
0(
#221
b00000011 "
b00000010 #
1$
b00000010 %
b00000010 '
1(
b00000011 *
b00000010 -
b00000011 .
#226
0$
0(
#231
b00000100 "
b00000011 #
1$
b00000011 %
b00000011 '
1(
b00000100 *
b00000011 -
b00000100 .
#236
0$
0(
#241
b00000101 "
b00000100 #
1$
b00000100 %
b00000100 '
1(
b00000101 *
b00000100 -
b00000101 .
#246
0$
0(
#251
b00000110 "
b00000101 #
1$
b00000101 %
b00000101 '
1(
b00000110 *
b00000101 -
b00000110 .
#256
0$
0(
#261
b00000111 "
b00000110 #
1$
b00000110 %
b00000110 '
1(
b00000111 *
b00000110 -
b00000111 .
#266
0$
0(
#271
b00001000 "
b00000111 #
1$
b00000111 %
b00000111 '
1(
b00001000 *
b00000111 -
b00001000 .
#276
0$
0(
#281
b00001001 "
b00001000 #
1$
b00001000 %
b00001000 '
1(
b00001001 *
b00001000 -
b00001001 .
#286
0$
0(
#291
b00000000 "
b00001001 #
1$
b00001001 %
b00001001 '
1(
b00001010 *
b00001001 -
b00000000 .
#296
0$
0(
#301
b00000001 "
b00000000 #
1$
b00000000 %
b00000000 '
1(
b00000001 *
b00000000 -
b00000001 .
#306
0$
0(
#311
b00000010 "
b00000001 #
1$
b00000001 %
b00000001 '
1(
b00000010 *
b00000001 -
b00000010 .
#316
0$
0(
#321
b00000011 "
b00000010 #
1$
b00000010 %
b00000010 '
1(
b00000011 *
b00000010 -
b00000011 .
#326
0$
0(
#331
b00000100 "
b00000011 #
1$
b00000011 %
b00000011 '
1(
b00000100 *
b00000011 -
b00000100 .
#336
0$
0(
#341
b00000101 "
b00000100 #
1$
b00000100 %
b00000100 '
1(
b00000101 *
b00000100 -
b00000101 .
#346
0$
0(
#351
b00000110 "
b00000101 #
1$
b00000101 %
b00000101 '
1(
b00000110 *
b00000101 -
b00000110 .
#356
0$
0(
#361
b00000111 "
b00000110 #
1$
b00000110 %
b00000110 '
1(
b00000111 *
b00000110 -
b00000111 .
#366
0$
0(
#371
b00001000 "
b00000111 #
1$
b00000111 %
b00000111 '
1(
b00001000 *
b00000111 -
b00001000 .
#376
0$
0(
#381
b00001001 "
b00001000 #
1$
b00001000 %
b00001000 '
1(
b00001001 *
b00001000 -
b00001001 .
#386
0$
0(
#391
b00000000 "
b00001001 #
1$
b00001001 %
b00001001 '
1(
b00001010 *
b00001001 -
b00000000 .
#396
0$
0(
#401
b00000001 "
b00000000 #
1$
b00000000 %
b00000000 '
1(
b00000001 *
b00000000 -
b00000001 .
#406
0$
0(
#411
b00000010 "
b00000001 #
1$
b00000001 %
b00000001 '
1(
b00000010 *
b00000001 -
b00000010 .
#416
0$
0(
#421
b00000011 "
b00000010 #
1$
b00000010 %
b00000010 '
1(
b00000011 *
b00000010 -
b00000011 .
#426
0$
0(
#431
b00000100 "
b00000011 #
1$
b00000011 %
b00000011 '
1(
b00000100 *
b00000011 -
b00000100 .
#436
0$
0(
#441
b00000101 "
b00000100 #
1$
b00000100 %
b00000100 '
1(
b00000101 *
b00000100 -
b00000101 .
#446
0$
0(
#451
b00000110 "
b00000101 #
1$
b00000101 %
b00000101 '
1(
b00000110 *
b00000101 -
b00000110 .
#456
0$
0(
#461
b00000111 "
b00000110 #
1$
b00000110 %
b00000110 '
1(
b00000111 *
b00000110 -
b00000111 .
#466
0$
0(
#471
b00001000 "
b00000111 #
1$
b00000111 %
b00000111 '
1(
b00001000 *
b00000111 -
b00001000 .
#476
0$
0(
#481
b00001001 "
b00001000 #
1$
b00001000 %
b00001000 '
1(
b00001001 *
b00001000 -
b00001001 .
#486
0$
0(
#491
b00000000 "
b00001001 #
1$
b00001001 %
b00001001 '
1(
b00001010 *
b00001001 -
b00000000 .
#496
0$
0(
#501
b00000001 "
b00000000 #
1$
b00000000 %
b00000000 '
1(
b00000001 *
b00000000 -
b00000001 .
#506
0$
0(
#511
b00000010 "
b00000001 #
1$
b00000001 %
b00000001 '
1(
b00000010 *
b00000001 -
b00000010 .
#516
0$
0(
#521
b00000011 "
b00000010 #
1$
b00000010 %
b00000010 '
1(
b00000011 *
b00000010 -
b00000011 .
#526
0$
0(
#531
b00000100 "
b00000011 #
1$
b00000011 %
b00000011 '
1(
b00000100 *
b00000011 -
b00000100 .
#536
0$
0(
#541
b00000101 "
b00000100 #
1$
b00000100 %
b00000100 '
1(
b00000101 *
b00000100 -
b00000101 .
#546
0$
0(
#551
b00000110 "
b00000101 #
1$
b00000101 %
b00000101 '
1(
b00000110 *
b00000101 -
b00000110 .
#556
0$
0(
#561
b00000111 "
b00000110 #
1$
b00000110 %
b00000110 '
1(
b00000111 *
b00000110 -
b00000111 .
#566
0$
0(
#571
b00001000 "
b00000111 #
1$
b00000111 %
b00000111 '
1(
b00001000 *
b00000111 -
b00001000 .
#576
0$
0(
#581
b00001001 "
b00001000 #
1$
b00001000 %
b00001000 '
1(
b00001001 *
b00001000 -
b00001001 .
#586
0$
0(
#591
b00000000 "
b00001001 #
1$
b00001001 %
b00001001 '
1(
b00001010 *
b00001001 -
b00000000 .
#596
0$
0(
#601
b00000001 "
b00000000 #
1$
b00000000 %
b00000000 '
1(
b00000001 *
b00000000 -
b00000001 .
#606
0$
0(
#611
b00000010 "
b00000001 #
1$
b00000001 %
b00000001 '
1(
b00000010 *
b00000001 -
b00000010 .
#616
0$
0(
#621
b00000011 "
b00000010 #
1$
b00000010 %
b00000010 '
1(
b00000011 *
b00000010 -
b00000011 .
#626
0$
0(
#631
b00000100 "
b00000011 #
1$
b00000011 %
b00000011 '
1(
b00000100 *
b00000011 -
b00000100 .
#636
0$
0(
#641
b00000101 "
b00000100 #
1$
b00000100 %
b00000100 '
1(
b00000101 *
b00000100 -
b00000101 .
#646
0$
0(
#651
b00000110 "
b00000101 #
1$
b00000101 %
b00000101 '
1(
b00000110 *
b00000101 -
b00000110 .
#656
0$
0(
#661
b00000111 "
b00000110 #
1$
b00000110 %
b00000110 '
1(
b00000111 *
b00000110 -
b00000111 .
#666
0$
0(
#671
b00001000 "
b00000111 #
1$
b00000111 %
b00000111 '
1(
b00001000 *
b00000111 -
b00001000 .
#676
0$
0(
#681
b00001001 "
b00001000 #
1$
b00001000 %
b00001000 '
1(
b00001001 *
b00001000 -
b00001001 .
#686
0$
0(
#691
b00000000 "
b00001001 #
1$
b00001001 %
b00001001 '
1(
b00001010 *
b00001001 -
b00000000 .
#696
0$
0(
#701
b00000001 "
b00000000 #
1$
b00000000 %
b00000000 '
1(
b00000001 *
b00000000 -
b00000001 .
#706
0$
0(
#711
b00000010 "
b00000001 #
1$
b00000001 %
b00000001 '
1(
b00000010 *
b00000001 -
b00000010 .
#716
0$
0(
#721
b00000011 "
b00000010 #
1$
b00000010 %
b00000010 '
1(
b00000011 *
b00000010 -
b00000011 .
#726
0$
0(
#731
b00000100 "
b00000011 #
1$
b00000011 %
b00000011 '
1(
b00000100 *
b00000011 -
b00000100 .
#736
0$
0(
#741
b00000101 "
b00000100 #
1$
b00000100 %
b00000100 '
1(
b00000101 *
b00000100 -
b00000101 .
#746
0$
0(
#751
b00000110 "
b00000101 #
1$
b00000101 %
b00000101 '
1(
b00000110 *
b00000101 -
b00000110 .
#756
0$
0(
#761
b00000111 "
b00000110 #
1$
b00000110 %
b00000110 '
1(
b00000111 *
b00000110 -
b00000111 .
#766
0$
0(
#771
b00001000 "
b00000111 #
1$
b00000111 %
b00000111 '
1(
b00001000 *
b00000111 -
b00001000 .
#776
0$
0(
#781
b00001001 "
b00001000 #
1$
b00001000 %
b00001000 '
1(
b00001001 *
b00001000 -
b00001001 .
#786
0$
0(
#791
b00000000 "
b00001001 #
1$
b00001001 %
b00001001 '
1(
b00001010 *
b00001001 -
b00000000 .
#796
0$
0(
#801
b00000001 "
b00000000 #
1$
b00000000 %
b00000000 '
1(
b00000001 *
b00000000 -
b00000001 .
#806
0$
0(
#811
b00000010 "
b00000001 #
1$
b00000001 %
b00000001 '
1(
b00000010 *
b00000001 -
b00000010 .
#816
0$
0(
#821
b00000011 "
b00000010 #
1$
b00000010 %
b00000010 '
1(
b00000011 *
b00000010 -
b00000011 .
#826
0$
0(
#831
b00000100 "
b00000011 #
1$
b00000011 %
b00000011 '
1(
b00000100 *
b00000011 -
b00000100 .
#836
0$
0(
#841
b00000101 "
b00000100 #
1$
b00000100 %
b00000100 '
1(
b00000101 *
b00000100 -
b00000101 .
#846
0$
0(
#851
b00000110 "
b00000101 #
1$
b00000101 %
b00000101 '
1(
b00000110 *
b00000101 -
b00000110 .
#856
0$
0(
#861
b00000111 "
b00000110 #
1$
b00000110 %
b00000110 '
1(
b00000111 *
b00000110 -
b00000111 .
#866
0$
0(
#871
b00001000 "
b00000111 #
1$
b00000111 %
b00000111 '
1(
b00001000 *
b00000111 -
b00001000 .
#876
0$
0(
#881
b00001001 "
b00001000 #
1$
b00001000 %
b00001000 '
1(
b00001001 *
b00001000 -
b00001001 .
#886
0$
0(
#891
b00000000 "
b00001001 #
1$
b00001001 %
b00001001 '
1(
b00001010 *
b00001001 -
b00000000 .
#896
0$
0(
#901
b00000001 "
b00000000 #
1$
b00000000 %
b00000000 '
1(
b00000001 *
b00000000 -
b00000001 .
#906
0$
0(
#911
b00000010 "
b00000001 #
1$
b00000001 %
b00000001 '
1(
b00000010 *
b00000001 -
b00000010 .
#916
0$
0(
#921
b00000011 "
b00000010 #
1$
b00000010 %
b00000010 '
1(
b00000011 *
b00000010 -
b00000011 .
#926
0$
0(
#931
b00000100 "
b00000011 #
1$
b00000011 %
b00000011 '
1(
b00000100 *
b00000011 -
b00000100 .
#936
0$
0(
#941
b00000101 "
b00000100 #
1$
b00000100 %
b00000100 '
1(
b00000101 *
b00000100 -
b00000101 .
#946
0$
0(
#951
b00000110 "
b00000101 #
1$
b00000101 %
b00000101 '
1(
b00000110 *
b00000101 -
b00000110 .
#956
0$
0(
#961
b00000111 "
b00000110 #
1$
b00000110 %
b00000110 '
1(
b00000111 *
b00000110 -
b00000111 .
#966
0$
0(
#971
b00001000 "
b00000111 #
1$
b00000111 %
b00000111 '
1(
b00001000 *
b00000111 -
b00001000 .
#976
0$
0(
#981
b00001001 "
b00001000 #
1$
b00001000 %
b00001000 '
1(
b00001001 *
b00001000 -
b00001001 .
#986
0$
0(
#991
b00000000 "
b00001001 #
1$
b00001001 %
b00001001 '
1(
b00001010 *
b00001001 -
b00000000 .
#996
0$
0(
#1001
b00000001 "
b00000000 #
1$
b00000000 %
b00000000 '
1(
b00000001 *
b00000000 -
b00000001 .
#1006
0$
0(
#1011
b00000010 "
b00000001 #
1$
b00000001 %
b00000001 '
1(
b00000010 *
b00000001 -
b00000010 .
#1016
0$
0(
#1021
b00000011 "
b00000010 #
1$
b00000010 %
b00000010 '
1(
b00000011 *
b00000010 -
b00000011 .
#1026
0$
0(
#1031
b00000100 "
b00000011 #
1$
b00000011 %
b00000011 '
1(
b00000100 *
b00000011 -
b00000100 .
#1036
0$
0(
#1041
b00000101 "
b00000100 #
1$
b00000100 %
b00000100 '
1(
b00000101 *
b00000100 -
b00000101 .
#1046
0$
0(
#1051
b00000110 "
b00000101 #
1$
b00000101 %
b00000101 '
1(
b00000110 *
b00000101 -
b00000110 .
#1056
0$
0(
#1061
b00000111 "
b00000110 #
1$
b00000110 %
b00000110 '
1(
b00000111 *
b00000110 -
b00000111 .
#1066
0$
0(
#1071
b00001000 "
b00000111 #
1$
b00000111 %
b00000111 '
1(
b00001000 *
b00000111 -
b00001000 .
#1076
0$
0(
#1081
b00001001 "
b00001000 #
1$
b00001000 %
b00001000 '
1(
b00001001 *
b00001000 -
b00001001 .
#1086
0$
0(
#1091
b00000000 "
b00001001 #
1$
b00001001 %
b00001001 '
1(
b00001010 *
b00001001 -
b00000000 .
#1096
0$
0(
#1101
b00000001 "
b00000000 #
1$
b00000000 %
b00000000 '
1(
b00000001 *
b00000000 -
b00000001 .
#1106
0$
0(
#1111
b00000010 "
b00000001 #
1$
b00000001 %
b00000001 '
1(
b00000010 *
b00000001 -
b00000010 .
#1116
0$
0(
#1121
b00000011 "
b00000010 #
1$
b00000010 %
b00000010 '
1(
b00000011 *
b00000010 -
b00000011 .
#1126
0$
0(
#1131
b00000100 "
b00000011 #
1$
b00000011 %
b00000011 '
1(
b00000100 *
b00000011 -
b00000100 .
#1136
0$
0(
#1141
b00000101 "
b00000100 #
1$
b00000100 %
b00000100 '
1(
b00000101 *
b00000100 -
b00000101 .
#1146
0$
0(
#1151
b00000110 "
b00000101 #
1$
b00000101 %
b00000101 '
1(
b00000110 *
b00000101 -
b00000110 .
#1156
0$
0(
#1161
b00000111 "
b00000110 #
1$
b00000110 %
b00000110 '
1(
b00000111 *
b00000110 -
b00000111 .
#1166
0$
0(
#1171
b00001000 "
b00000111 #
1$
b00000111 %
b00000111 '
1(
b00001000 *
b00000111 -
b00001000 .
#1176
0$
0(
#1181
b00001001 "
b00001000 #
1$
b00001000 %
b00001000 '
1(
b00001001 *
b00001000 -
b00001001 .
#1186
0$
0(
#1191
b00000000 "
b00001001 #
1$
b00001001 %
b00001001 '
1(
b00001010 *
b00001001 -
b00000000 .
#1196
0$
0(
#1201
b00000001 "
b00000000 #
1$
b00000000 %
b00000000 '
1(
b00000001 *
b00000000 -
b00000001 .
#1206
0$
0(
#1211
b00000010 "
b00000001 #
1$
b00000001 %
b00000001 '
1(
b00000010 *
b00000001 -
b00000010 .
#1216
0$
0(
#1221
b00000011 "
b00000010 #
1$
b00000010 %
b00000010 '
1(
b00000011 *
b00000010 -
b00000011 .
#1226
0$
0(
#1231
b00000100 "
b00000011 #
1$
b00000011 %
b00000011 '
1(
b00000100 *
b00000011 -
b00000100 .
#1236
0$
0(
#1241
b00000101 "
b00000100 #
1$
b00000100 %
b00000100 '
1(
b00000101 *
b00000100 -
b00000101 .
#1246
0$
0(
#1251
b00000110 "
b00000101 #
1$
b00000101 %
b00000101 '
1(
b00000110 *
b00000101 -
b00000110 .
#1256
0$
0(
#1261
b00000111 "
b00000110 #
1$
b00000110 %
b00000110 '
1(
b00000111 *
b00000110 -
b00000111 .
#1266
0$
0(
#1271
b00001000 "
b00000111 #
1$
b00000111 %
b00000111 '
1(
b00001000 *
b00000111 -
b00001000 .
#1276
0$
0(
#1281
b00001001 "
b00001000 #
1$
b00001000 %
b00001000 '
1(
b00001001 *
b00001000 -
b00001001 .
#1286
0$
0(
#1291
b00000000 "
b00001001 #
1$
b00001001 %
b00001001 '
1(
b00001010 *
b00001001 -
b00000000 .
#1296
0$
0(
#1301
b00000001 "
b00000000 #
1$
b00000000 %
b00000000 '
1(
b00000001 *
b00000000 -
b00000001 .
#1306
0$
0(
#1311
b00000010 "
b00000001 #
1$
b00000001 %
b00000001 '
1(
b00000010 *
b00000001 -
b00000010 .
#1316
0$
0(
#1321
b00000011 "
b00000010 #
1$
b00000010 %
b00000010 '
1(
b00000011 *
b00000010 -
b00000011 .
#1326
0$
0(
#1331
b00000100 "
b00000011 #
1$
b00000011 %
b00000011 '
1(
b00000100 *
b00000011 -
b00000100 .
#1336
0$
0(
#1341
b00000101 "
b00000100 #
1$
b00000100 %
b00000100 '
1(
b00000101 *
b00000100 -
b00000101 .
#1346
0$
0(
#1351
b00000110 "
b00000101 #
1$
b00000101 %
b00000101 '
1(
b00000110 *
b00000101 -
b00000110 .
#1356
0$
0(
#1361
b00000111 "
b00000110 #
1$
b00000110 %
b00000110 '
1(
b00000111 *
b00000110 -
b00000111 .
#1366
0$
0(
#1371
b00001000 "
b00000111 #
1$
b00000111 %
b00000111 '
1(
b00001000 *
b00000111 -
b00001000 .
#1376
0$
0(
#1381
b00001001 "
b00001000 #
1$
b00001000 %
b00001000 '
1(
b00001001 *
b00001000 -
b00001001 .
#1386
0$
0(
#1391
b00000000 "
b00001001 #
1$
b00001001 %
b00001001 '
1(
b00001010 *
b00001001 -
b00000000 .
#1396
0$
0(
#1401
b00000001 "
b00000000 #
1$
b00000000 %
b00000000 '
1(
b00000001 *
b00000000 -
b00000001 .
#1406
0$
0(
#1411
b00000010 "
b00000001 #
1$
b00000001 %
b00000001 '
1(
b00000010 *
b00000001 -
b00000010 .
#1416
0$
0(
#1421
b00000011 "
b00000010 #
1$
b00000010 %
b00000010 '
1(
b00000011 *
b00000010 -
b00000011 .
#1426
0$
0(
#1431
b00000100 "
b00000011 #
1$
b00000011 %
b00000011 '
1(
b00000100 *
b00000011 -
b00000100 .
#1436
0$
0(
#1441
b00000101 "
b00000100 #
1$
b00000100 %
b00000100 '
1(
b00000101 *
b00000100 -
b00000101 .
#1446
0$
0(
#1451
b00000110 "
b00000101 #
1$
b00000101 %
b00000101 '
1(
b00000110 *
b00000101 -
b00000110 .
#1456
0$
0(
#1461
b00000111 "
b00000110 #
1$
b00000110 %
b00000110 '
1(
b00000111 *
b00000110 -
b00000111 .
#1466
0$
0(
#1471
b00001000 "
b00000111 #
1$
b00000111 %
b00000111 '
1(
b00001000 *
b00000111 -
b00001000 .
#1476
0$
0(
#1481
b00001001 "
b00001000 #
1$
b00001000 %
b00001000 '
1(
b00001001 *
b00001000 -
b00001001 .
#1486
0$
0(
#1491
b00000000 "
b00001001 #
1$
b00001001 %
b00001001 '
1(
b00001010 *
b00001001 -
b00000000 .
#1496
0$
0(
#1501
b00000001 "
b00000000 #
1$
b00000000 %
b00000000 '
1(
b00000001 *
b00000000 -
b00000001 .
#1506
0$
0(
#1511
b00000010 "
b00000001 #
1$
b00000001 %
b00000001 '
1(
b00000010 *
b00000001 -
b00000010 .
#1516
0$
0(
#1521
b00000011 "
b00000010 #
1$
b00000010 %
b00000010 '
1(
b00000011 *
b00000010 -
b00000011 .
#1526
0$
0(
#1531
b00000100 "
b00000011 #
1$
b00000011 %
b00000011 '
1(
b00000100 *
b00000011 -
b00000100 .
#1536
0$
0(
#1541
b00000101 "
b00000100 #
1$
b00000100 %
b00000100 '
1(
b00000101 *
b00000100 -
b00000101 .
#1546
0$
0(
#1551
b00000110 "
b00000101 #
1$
b00000101 %
b00000101 '
1(
b00000110 *
b00000101 -
b00000110 .
#1556
0$
0(
#1561
b00000111 "
b00000110 #
1$
b00000110 %
b00000110 '
1(
b00000111 *
b00000110 -
b00000111 .
#1566
0$
0(
#1571
b00001000 "
b00000111 #
1$
b00000111 %
b00000111 '
1(
b00001000 *
b00000111 -
b00001000 .
#1576
0$
0(
#1581
b00001001 "
b00001000 #
1$
b00001000 %
b00001000 '
1(
b00001001 *
b00001000 -
b00001001 .
#1586
0$
0(
#1591
b00000000 "
b00001001 #
1$
b00001001 %
b00001001 '
1(
b00001010 *
b00001001 -
b00000000 .
#1596
0$
0(
#1601
b00000001 "
b00000000 #
1$
b00000000 %
b00000000 '
1(
b00000001 *
b00000000 -
b00000001 .
#1606
0$
0(
#1611
b00000010 "
b00000001 #
1$
b00000001 %
b00000001 '
1(
b00000010 *
b00000001 -
b00000010 .
#1616
0$
0(
#1621
b00000011 "
b00000010 #
1$
b00000010 %
b00000010 '
1(
b00000011 *
b00000010 -
b00000011 .
#1626
0$
0(
#1631
b00000100 "
b00000011 #
1$
b00000011 %
b00000011 '
1(
b00000100 *
b00000011 -
b00000100 .
#1636
0$
0(
#1641
b00000101 "
b00000100 #
1$
b00000100 %
b00000100 '
1(
b00000101 *
b00000100 -
b00000101 .
#1646
0$
0(
#1651
b00000110 "
b00000101 #
1$
b00000101 %
b00000101 '
1(
b00000110 *
b00000101 -
b00000110 .
#1656
0$
0(
#1661
b00000111 "
b00000110 #
1$
b00000110 %
b00000110 '
1(
b00000111 *
b00000110 -
b00000111 .
#1666
0$
0(
#1671
b00001000 "
b00000111 #
1$
b00000111 %
b00000111 '
1(
b00001000 *
b00000111 -
b00001000 .
#1676
0$
0(
#1681
b00001001 "
b00001000 #
1$
b00001000 %
b00001000 '
1(
b00001001 *
b00001000 -
b00001001 .
#1686
0$
0(
#1691
b00000000 "
b00001001 #
1$
b00001001 %
b00001001 '
1(
b00001010 *
b00001001 -
b00000000 .
#1696
0$
0(
#1701
b00000001 "
b00000000 #
1$
b00000000 %
b00000000 '
1(
b00000001 *
b00000000 -
b00000001 .
#1706
0$
0(
#1711
b00000010 "
b00000001 #
1$
b00000001 %
b00000001 '
1(
b00000010 *
b00000001 -
b00000010 .
#1716
0$
0(
#1721
b00000011 "
b00000010 #
1$
b00000010 %
b00000010 '
1(
b00000011 *
b00000010 -
b00000011 .
#1726
0$
0(
#1731
b00000100 "
b00000011 #
1$
b00000011 %
b00000011 '
1(
b00000100 *
b00000011 -
b00000100 .
#1736
0$
0(
#1741
b00000101 "
b00000100 #
1$
b00000100 %
b00000100 '
1(
b00000101 *
b00000100 -
b00000101 .
#1746
0$
0(
#1751
b00000110 "
b00000101 #
1$
b00000101 %
b00000101 '
1(
b00000110 *
b00000101 -
b00000110 .
#1756
0$
0(
#1761
b00000111 "
b00000110 #
1$
b00000110 %
b00000110 '
1(
b00000111 *
b00000110 -
b00000111 .
#1766
0$
0(
#1771
b00001000 "
b00000111 #
1$
b00000111 %
b00000111 '
1(
b00001000 *
b00000111 -
b00001000 .
#1776
0$
0(
#1781
b00001001 "
b00001000 #
1$
b00001000 %
b00001000 '
1(
b00001001 *
b00001000 -
b00001001 .
#1786
0$
0(
#1791
b00000000 "
b00001001 #
1$
b00001001 %
b00001001 '
1(
b00001010 *
b00001001 -
b00000000 .
#1796
0$
0(
#1801
b00000001 "
b00000000 #
1$
b00000000 %
b00000000 '
1(
b00000001 *
b00000000 -
b00000001 .
#1806
0$
0(
#1811
b00000010 "
b00000001 #
1$
b00000001 %
b00000001 '
1(
b00000010 *
b00000001 -
b00000010 .
#1816
0$
0(
#1821
b00000011 "
b00000010 #
1$
b00000010 %
b00000010 '
1(
b00000011 *
b00000010 -
b00000011 .
#1826
0$
0(
#1831
b00000100 "
b00000011 #
1$
b00000011 %
b00000011 '
1(
b00000100 *
b00000011 -
b00000100 .
#1836
0$
0(
#1841
b00000101 "
b00000100 #
1$
b00000100 %
b00000100 '
1(
b00000101 *
b00000100 -
b00000101 .
#1846
0$
0(
#1851
b00000110 "
b00000101 #
1$
b00000101 %
b00000101 '
1(
b00000110 *
b00000101 -
b00000110 .
#1856
0$
0(
#1861
b00000111 "
b00000110 #
1$
b00000110 %
b00000110 '
1(
b00000111 *
b00000110 -
b00000111 .
#1866
0$
0(
#1871
b00001000 "
b00000111 #
1$
b00000111 %
b00000111 '
1(
b00001000 *
b00000111 -
b00001000 .
#1876
0$
0(
#1881
b00001001 "
b00001000 #
1$
b00001000 %
b00001000 '
1(
b00001001 *
b00001000 -
b00001001 .
#1886
0$
0(
#1891
b00000000 "
b00001001 #
1$
b00001001 %
b00001001 '
1(
b00001010 *
b00001001 -
b00000000 .
#1896
0$
0(
#1901
b00000001 "
b00000000 #
1$
b00000000 %
b00000000 '
1(
b00000001 *
b00000000 -
b00000001 .
#1906
0$
0(
#1911
b00000010 "
b00000001 #
1$
b00000001 %
b00000001 '
1(
b00000010 *
b00000001 -
b00000010 .
#1916
0$
0(
#1921
b00000011 "
b00000010 #
1$
b00000010 %
b00000010 '
1(
b00000011 *
b00000010 -
b00000011 .
#1926
0$
0(
#1931
b00000100 "
b00000011 #
1$
b00000011 %
b00000011 '
1(
b00000100 *
b00000011 -
b00000100 .
#1936
0$
0(
#1941
b00000101 "
b00000100 #
1$
b00000100 %
b00000100 '
1(
b00000101 *
b00000100 -
b00000101 .
#1946
0$
0(
#1951
b00000110 "
b00000101 #
1$
b00000101 %
b00000101 '
1(
b00000110 *
b00000101 -
b00000110 .
#1956
0$
0(
#1961
b00000111 "
b00000110 #
1$
b00000110 %
b00000110 '
1(
b00000111 *
b00000110 -
b00000111 .
#1966
0$
0(
#1971
b00001000 "
b00000111 #
1$
b00000111 %
b00000111 '
1(
b00001000 *
b00000111 -
b00001000 .
#1976
0$
0(
#1981
b00001001 "
b00001000 #
1$
b00001000 %
b00001000 '
1(
b00001001 *
b00001000 -
b00001001 .
#1986
0$
0(
#1991
b00000000 "
b00001001 #
1$
b00001001 %
b00001001 '
1(
b00001010 *
b00001001 -
b00000000 .
#1996
0$
0(
#2001
b00000001 "
b00000000 #
1$
b00000000 %
b00000000 '
1(
b00000001 *
b00000000 -
b00000001 .
#2006
0$
0(
#2011
b00000010 "
b00000001 #
1$
b00000001 %
b00000001 '
1(
b00000010 *
b00000001 -
b00000010 .
#2016
0$
0(
#2021
b00000011 "
b00000010 #
1$
b00000010 %
b00000010 '
1(
b00000011 *
b00000010 -
b00000011 .
#2026
0$
0(
#2031
b00000100 "
b00000011 #
1$
b00000011 %
b00000011 '
1(
b00000100 *
b00000011 -
b00000100 .
#2036
0$
0(
#2041
b00000101 "
b00000100 #
1$
b00000100 %
b00000100 '
1(
b00000101 *
b00000100 -
b00000101 .
#2046
0$
0(
#2051
b00000110 "
b00000101 #
1$
b00000101 %
b00000101 '
1(
b00000110 *
b00000101 -
b00000110 .
#2056
0$
0(
#2061
b00000111 "
b00000110 #
1$
b00000110 %
b00000110 '
1(
b00000111 *
b00000110 -
b00000111 .
#2066
0$
0(
#2071
b00001000 "
b00000111 #
1$
b00000111 %
b00000111 '
1(
b00001000 *
b00000111 -
b00001000 .
#2076
0$
0(
#2081
b00001001 "
b00001000 #
1$
b00001000 %
b00001000 '
1(
b00001001 *
b00001000 -
b00001001 .
#2086
0$
0(
#2091
b00000000 "
b00001001 #
1$
b00001001 %
b00001001 '
1(
b00001010 *
b00001001 -
b00000000 .
#2096
0$
0(
#2101
b00000001 "
b00000000 #
1$
b00000000 %
b00000000 '
1(
b00000001 *
b00000000 -
b00000001 .
#2106
0$
0(
#2111
b00000010 "
b00000001 #
1$
b00000001 %
b00000001 '
1(
b00000010 *
b00000001 -
b00000010 .
#2116
0$
0(
#2121
b00000011 "
b00000010 #
1$
b00000010 %
b00000010 '
1(
b00000011 *
b00000010 -
b00000011 .
#2126
0$
0(
#2131
b00000100 "
b00000011 #
1$
b00000011 %
b00000011 '
1(
b00000100 *
b00000011 -
b00000100 .
#2136
0$
0(
