test_run_dir/Just_simulate_/Hello.vcd
$date
2022-06-21T04:53+0000
$end
$version
0.2
$end
$comment

$end
$timescale 1ns  $end
$scope module Hello $end
 $var wire 1 ! io_led $end
 $var wire 1 " clock $end
 $var wire 1 # blkReg $end
 $var wire 32 $ cntReg $end
 $var wire 1 % reset $end
$upscope $end
$enddefinitions $end
$dumpvars
0!
0"
0#
0%
b00000000000000000000000000000000 $
$end
#0
1%
#1
1"
#6
0"
0%
#11
1"
b00000000000000000000000000000001 $
#16
0"
#21
1"
b00000000000000000000000000000010 $
#26
0"
#31
1"
b00000000000000000000000000000011 $
#36
0"
#41
1"
b00000000000000000000000000000100 $
#46
0"
#51
1"
b00000000000000000000000000000101 $
#56
0"
#61
1"
b00000000000000000000000000000110 $
#66
0"
#71
1"
b00000000000000000000000000000111 $
#76
0"
#81
1"
b00000000000000000000000000001000 $
#86
0"
#91
1"
b00000000000000000000000000001001 $
#96
0"
#101
1"
b00000000000000000000000000001010 $
#106
0"
#111
1"
b00000000000000000000000000001011 $
#116
0"
#121
1"
b00000000000000000000000000001100 $
#126
0"
#131
1"
b00000000000000000000000000001101 $
#136
0"
#141
1"
b00000000000000000000000000001110 $
#146
0"
#151
1"
b00000000000000000000000000001111 $
#156
0"
#161
1"
b00000000000000000000000000010000 $
#166
0"
#171
1"
b00000000000000000000000000010001 $
#176
0"
#181
1"
b00000000000000000000000000010010 $
#186
0"
#191
1"
b00000000000000000000000000010011 $
#196
0"
#201
1"
b00000000000000000000000000010100 $
#206
0"
#211
1"
b00000000000000000000000000010101 $
#216
0"
#221
1"
b00000000000000000000000000010110 $
#226
0"
#231
1"
b00000000000000000000000000010111 $
#236
0"
#241
1"
b00000000000000000000000000011000 $
#246
0"
#251
1"
b00000000000000000000000000011001 $
#256
0"
#261
1"
b00000000000000000000000000011010 $
#266
0"
#271
1"
b00000000000000000000000000011011 $
#276
0"
#281
1"
b00000000000000000000000000011100 $
#286
0"
#291
1"
b00000000000000000000000000011101 $
#296
0"
#301
1"
b00000000000000000000000000011110 $
#306
0"
#311
1"
b00000000000000000000000000011111 $
#316
0"
#321
1"
b00000000000000000000000000100000 $
#326
0"
#331
1"
b00000000000000000000000000100001 $
#336
0"
#341
1"
b00000000000000000000000000100010 $
#346
0"
#351
1"
b00000000000000000000000000100011 $
#356
0"
#361
1"
b00000000000000000000000000100100 $
#366
0"
#371
1"
b00000000000000000000000000100101 $
#376
0"
#381
1"
b00000000000000000000000000100110 $
#386
0"
#391
1"
b00000000000000000000000000100111 $
#396
0"
#401
1"
b00000000000000000000000000101000 $
#406
0"
#411
1"
b00000000000000000000000000101001 $
#416
0"
#421
1"
b00000000000000000000000000101010 $
#426
0"
#431
1"
b00000000000000000000000000101011 $
#436
0"
#441
1"
b00000000000000000000000000101100 $
#446
0"
#451
1"
b00000000000000000000000000101101 $
#456
0"
#461
1"
b00000000000000000000000000101110 $
#466
0"
#471
1"
b00000000000000000000000000101111 $
#476
0"
#481
1"
b00000000000000000000000000110000 $
#486
0"
#491
1"
b00000000000000000000000000110001 $
#496
0"
#501
1"
b00000000000000000000000000110010 $
#506
0"
#511
1"
b00000000000000000000000000110011 $
#516
0"
#521
1"
b00000000000000000000000000110100 $
#526
0"
#531
1"
b00000000000000000000000000110101 $
#536
0"
#541
1"
b00000000000000000000000000110110 $
#546
0"
#551
1"
b00000000000000000000000000110111 $
#556
0"
#561
1"
b00000000000000000000000000111000 $
#566
0"
#571
1"
b00000000000000000000000000111001 $
#576
0"
#581
1"
b00000000000000000000000000111010 $
#586
0"
#591
1"
b00000000000000000000000000111011 $
#596
0"
#601
1"
b00000000000000000000000000111100 $
#606
0"
#611
1"
b00000000000000000000000000111101 $
#616
0"
#621
1"
b00000000000000000000000000111110 $
#626
0"
#631
1"
b00000000000000000000000000111111 $
#636
0"
#641
1"
b00000000000000000000000001000000 $
#646
0"
#651
1"
b00000000000000000000000001000001 $
#656
0"
#661
1"
b00000000000000000000000001000010 $
#666
0"
#671
1"
b00000000000000000000000001000011 $
#676
0"
#681
1"
b00000000000000000000000001000100 $
#686
0"
#691
1"
b00000000000000000000000001000101 $
#696
0"
#701
1"
b00000000000000000000000001000110 $
#706
0"
#711
1"
b00000000000000000000000001000111 $
#716
0"
#721
1"
b00000000000000000000000001001000 $
#726
0"
#731
1"
b00000000000000000000000001001001 $
#736
0"
#741
1"
b00000000000000000000000001001010 $
#746
0"
#751
1"
b00000000000000000000000001001011 $
#756
0"
#761
1"
b00000000000000000000000001001100 $
#766
0"
#771
1"
b00000000000000000000000001001101 $
#776
0"
#781
1"
b00000000000000000000000001001110 $
#786
0"
#791
1"
b00000000000000000000000001001111 $
#796
0"
#801
1"
b00000000000000000000000001010000 $
#806
0"
#811
1"
b00000000000000000000000001010001 $
#816
0"
#821
1"
b00000000000000000000000001010010 $
#826
0"
#831
1"
b00000000000000000000000001010011 $
#836
0"
#841
1"
b00000000000000000000000001010100 $
#846
0"
#851
1"
b00000000000000000000000001010101 $
#856
0"
#861
1"
b00000000000000000000000001010110 $
#866
0"
#871
1"
b00000000000000000000000001010111 $
#876
0"
#881
1"
b00000000000000000000000001011000 $
#886
0"
#891
1"
b00000000000000000000000001011001 $
#896
0"
#901
1"
b00000000000000000000000001011010 $
#906
0"
#911
1"
b00000000000000000000000001011011 $
#916
0"
#921
1"
b00000000000000000000000001011100 $
#926
0"
#931
1"
b00000000000000000000000001011101 $
#936
0"
#941
1"
b00000000000000000000000001011110 $
#946
0"
#951
1"
b00000000000000000000000001011111 $
#956
0"
#961
1"
b00000000000000000000000001100000 $
#966
0"
#971
1"
b00000000000000000000000001100001 $
#976
0"
#981
1"
b00000000000000000000000001100010 $
#986
0"
#991
1"
b00000000000000000000000001100011 $
#996
0"
#1001
1"
b00000000000000000000000001100100 $
#1006
0"
#1011
1"
b00000000000000000000000001100101 $
#1016
0"
#1021
1"
b00000000000000000000000001100110 $
#1026
0"
#1031
1"
b00000000000000000000000001100111 $
#1036
0"
#1041
1"
b00000000000000000000000001101000 $
#1046
0"
#1051
1"
b00000000000000000000000001101001 $
#1056
0"
#1061
1"
b00000000000000000000000001101010 $
#1066
0"
#1071
1"
b00000000000000000000000001101011 $
#1076
0"
#1081
1"
b00000000000000000000000001101100 $
#1086
0"
#1091
1"
b00000000000000000000000001101101 $
#1096
0"
#1101
1"
b00000000000000000000000001101110 $
#1106
0"
#1111
1"
b00000000000000000000000001101111 $
#1116
0"
#1121
1"
b00000000000000000000000001110000 $
#1126
0"
#1131
1"
b00000000000000000000000001110001 $
#1136
0"
#1141
1"
b00000000000000000000000001110010 $
#1146
0"
#1151
1"
b00000000000000000000000001110011 $
#1156
0"
#1161
1"
b00000000000000000000000001110100 $
#1166
0"
#1171
1"
b00000000000000000000000001110101 $
#1176
0"
#1181
1"
b00000000000000000000000001110110 $
#1186
0"
#1191
1"
b00000000000000000000000001110111 $
#1196
0"
#1201
1"
b00000000000000000000000001111000 $
#1206
0"
#1211
1"
b00000000000000000000000001111001 $
#1216
0"
#1221
1"
b00000000000000000000000001111010 $
#1226
0"
#1231
1"
b00000000000000000000000001111011 $
#1236
0"
#1241
1"
b00000000000000000000000001111100 $
#1246
0"
#1251
1"
b00000000000000000000000001111101 $
#1256
0"
#1261
1"
b00000000000000000000000001111110 $
#1266
0"
#1271
1"
b00000000000000000000000001111111 $
#1276
0"
#1281
1"
b00000000000000000000000010000000 $
#1286
0"
#1291
1"
b00000000000000000000000010000001 $
#1296
0"
#1301
1"
b00000000000000000000000010000010 $
#1306
0"
#1311
1"
b00000000000000000000000010000011 $
#1316
0"
#1321
1"
b00000000000000000000000010000100 $
#1326
0"
#1331
1"
b00000000000000000000000010000101 $
#1336
0"
#1341
1"
b00000000000000000000000010000110 $
#1346
0"
#1351
1"
b00000000000000000000000010000111 $
#1356
0"
#1361
1"
b00000000000000000000000010001000 $
#1366
0"
#1371
1"
b00000000000000000000000010001001 $
#1376
0"
#1381
1"
b00000000000000000000000010001010 $
#1386
0"
#1391
1"
b00000000000000000000000010001011 $
#1396
0"
#1401
1"
b00000000000000000000000010001100 $
#1406
0"
#1411
1"
b00000000000000000000000010001101 $
#1416
0"
#1421
1"
b00000000000000000000000010001110 $
#1426
0"
#1431
1"
b00000000000000000000000010001111 $
#1436
0"
#1441
1"
b00000000000000000000000010010000 $
#1446
0"
#1451
1"
b00000000000000000000000010010001 $
#1456
0"
#1461
1"
b00000000000000000000000010010010 $
#1466
0"
#1471
1"
b00000000000000000000000010010011 $
#1476
0"
#1481
1"
b00000000000000000000000010010100 $
#1486
0"
#1491
1"
b00000000000000000000000010010101 $
#1496
0"
#1501
1"
b00000000000000000000000010010110 $
#1506
0"
#1511
1"
b00000000000000000000000010010111 $
#1516
0"
#1521
1"
b00000000000000000000000010011000 $
#1526
0"
#1531
1"
b00000000000000000000000010011001 $
#1536
0"
#1541
1"
b00000000000000000000000010011010 $
#1546
0"
#1551
1"
b00000000000000000000000010011011 $
#1556
0"
#1561
1"
b00000000000000000000000010011100 $
#1566
0"
#1571
1"
b00000000000000000000000010011101 $
#1576
0"
#1581
1"
b00000000000000000000000010011110 $
#1586
0"
#1591
1"
b00000000000000000000000010011111 $
#1596
0"
#1601
1"
b00000000000000000000000010100000 $
#1606
0"
#1611
1"
b00000000000000000000000010100001 $
#1616
0"
#1621
1"
b00000000000000000000000010100010 $
#1626
0"
#1631
1"
b00000000000000000000000010100011 $
#1636
0"
#1641
1"
b00000000000000000000000010100100 $
#1646
0"
#1651
1"
b00000000000000000000000010100101 $
#1656
0"
#1661
1"
b00000000000000000000000010100110 $
#1666
0"
#1671
1"
b00000000000000000000000010100111 $
#1676
0"
#1681
1"
b00000000000000000000000010101000 $
#1686
0"
#1691
1"
b00000000000000000000000010101001 $
#1696
0"
#1701
1"
b00000000000000000000000010101010 $
#1706
0"
#1711
1"
b00000000000000000000000010101011 $
#1716
0"
#1721
1"
b00000000000000000000000010101100 $
#1726
0"
#1731
1"
b00000000000000000000000010101101 $
#1736
0"
#1741
1"
b00000000000000000000000010101110 $
#1746
0"
#1751
1"
b00000000000000000000000010101111 $
#1756
0"
#1761
1"
b00000000000000000000000010110000 $
#1766
0"
#1771
1"
b00000000000000000000000010110001 $
#1776
0"
#1781
1"
b00000000000000000000000010110010 $
#1786
0"
#1791
1"
b00000000000000000000000010110011 $
#1796
0"
#1801
1"
b00000000000000000000000010110100 $
#1806
0"
#1811
1"
b00000000000000000000000010110101 $
#1816
0"
#1821
1"
b00000000000000000000000010110110 $
#1826
0"
#1831
1"
b00000000000000000000000010110111 $
#1836
0"
#1841
1"
b00000000000000000000000010111000 $
#1846
0"
#1851
1"
b00000000000000000000000010111001 $
#1856
0"
#1861
1"
b00000000000000000000000010111010 $
#1866
0"
#1871
1"
b00000000000000000000000010111011 $
#1876
0"
#1881
1"
b00000000000000000000000010111100 $
#1886
0"
#1891
1"
b00000000000000000000000010111101 $
#1896
0"
#1901
1"
b00000000000000000000000010111110 $
#1906
0"
#1911
1"
b00000000000000000000000010111111 $
#1916
0"
#1921
1"
b00000000000000000000000011000000 $
#1926
0"
#1931
1"
b00000000000000000000000011000001 $
#1936
0"
#1941
1"
b00000000000000000000000011000010 $
#1946
0"
#1951
1"
b00000000000000000000000011000011 $
#1956
0"
#1961
1"
b00000000000000000000000011000100 $
#1966
0"
#1971
1"
b00000000000000000000000011000101 $
#1976
0"
#1981
1"
b00000000000000000000000011000110 $
#1986
0"
#1991
1"
b00000000000000000000000011000111 $
#1996
0"
#2001
1"
b00000000000000000000000011001000 $
#2006
0"
#2011
1"
b00000000000000000000000011001001 $
#2016
0"
#2021
1"
b00000000000000000000000011001010 $
#2026
0"
#2031
1"
b00000000000000000000000011001011 $
#2036
0"
#2041
1"
b00000000000000000000000011001100 $
#2046
0"
#2051
1"
b00000000000000000000000011001101 $
#2056
0"
#2061
1"
b00000000000000000000000011001110 $
#2066
0"
#2071
1"
b00000000000000000000000011001111 $
#2076
0"
#2081
1"
b00000000000000000000000011010000 $
#2086
0"
#2091
1"
b00000000000000000000000011010001 $
#2096
0"
#2101
1"
b00000000000000000000000011010010 $
#2106
0"
#2111
1"
b00000000000000000000000011010011 $
#2116
0"
#2121
1"
b00000000000000000000000011010100 $
#2126
0"
#2131
1"
b00000000000000000000000011010101 $
#2136
0"
#2141
1"
b00000000000000000000000011010110 $
#2146
0"
#2151
1"
b00000000000000000000000011010111 $
#2156
0"
#2161
1"
b00000000000000000000000011011000 $
#2166
0"
#2171
1"
b00000000000000000000000011011001 $
#2176
0"
#2181
1"
b00000000000000000000000011011010 $
#2186
0"
#2191
1"
b00000000000000000000000011011011 $
#2196
0"
#2201
1"
b00000000000000000000000011011100 $
#2206
0"
#2211
1"
b00000000000000000000000011011101 $
#2216
0"
#2221
1"
b00000000000000000000000011011110 $
#2226
0"
#2231
1"
b00000000000000000000000011011111 $
#2236
0"
#2241
1"
b00000000000000000000000011100000 $
#2246
0"
#2251
1"
b00000000000000000000000011100001 $
#2256
0"
#2261
1"
b00000000000000000000000011100010 $
#2266
0"
#2271
1"
b00000000000000000000000011100011 $
#2276
0"
#2281
1"
b00000000000000000000000011100100 $
#2286
0"
#2291
1"
b00000000000000000000000011100101 $
#2296
0"
#2301
1"
b00000000000000000000000011100110 $
#2306
0"
#2311
1"
b00000000000000000000000011100111 $
#2316
0"
#2321
1"
b00000000000000000000000011101000 $
#2326
0"
#2331
1"
b00000000000000000000000011101001 $
#2336
0"
#2341
1"
b00000000000000000000000011101010 $
#2346
0"
#2351
1"
b00000000000000000000000011101011 $
#2356
0"
#2361
1"
b00000000000000000000000011101100 $
#2366
0"
#2371
1"
b00000000000000000000000011101101 $
#2376
0"
#2381
1"
b00000000000000000000000011101110 $
#2386
0"
#2391
1"
b00000000000000000000000011101111 $
#2396
0"
#2401
1"
b00000000000000000000000011110000 $
#2406
0"
#2411
1"
b00000000000000000000000011110001 $
#2416
0"
#2421
1"
b00000000000000000000000011110010 $
#2426
0"
#2431
1"
b00000000000000000000000011110011 $
#2436
0"
#2441
1"
b00000000000000000000000011110100 $
#2446
0"
#2451
1"
b00000000000000000000000011110101 $
#2456
0"
#2461
1"
b00000000000000000000000011110110 $
#2466
0"
#2471
1"
b00000000000000000000000011110111 $
#2476
0"
#2481
1"
b00000000000000000000000011111000 $
#2486
0"
#2491
1"
b00000000000000000000000011111001 $
#2496
0"
#2501
1"
b00000000000000000000000011111010 $
#2506
0"
#2511
1"
b00000000000000000000000011111011 $
#2516
0"
#2521
1"
b00000000000000000000000011111100 $
#2526
0"
#2531
1"
b00000000000000000000000011111101 $
#2536
0"
#2541
1"
b00000000000000000000000011111110 $
#2546
0"
#2551
1"
b00000000000000000000000011111111 $
#2556
0"
#2561
1"
b00000000000000000000000100000000 $
